<svg width="2851" height="1939" viewBox="0 0 2851 1939" fill="none" xmlns="http://www.w3.org/2000/svg">
<path d="M2774.55 1078.69C2774.55 1078.69 3008 287 2654.05 70.881C2100 -177 2122.61 319.891 1325.39 239.371C918.603 198.291 416 151 118.663 704.931C-380.576 1635 845.233 2334.75 1235.61 1684.55C1653.6 988.361 2512 2095 2774.54 1078.69H2774.55Z" fill="url(#paint0_linear)"/>
<defs>
<linearGradient id="paint0_linear" x1="2835.53" y1="1402.04" x2="24.0367" y2="542.485" gradientUnits="userSpaceOnUse">
<stop stop-color="#B9CE00"/>
<stop offset="1" stop-color="#A0BF12"/>
</linearGradient>
</defs>
</svg>
