<svg width="1662" height="1071" viewBox="0 0 1662 1071" fill="none" xmlns="http://www.w3.org/2000/svg">
<path d="M218 1069C443.396 1031.97 1482.91 828.42 1482.91 828.42C1750.11 785.51 1638.05 492.95 1638.05 492.95C1638.05 492.95 1611.4 409.18 1517.4 151.18C1423.4 -106.82 525.395 35.3505 201 79C-123.395 122.649 -7.39516 1106.03 218 1069Z" fill="url(#paint0_linear)"/>
<defs>
<linearGradient id="paint0_linear" x1="-515" y1="1102" x2="1737" y2="1102" gradientUnits="userSpaceOnUse">
<stop stop-color="#FFB123"/>
<stop offset="1" stop-color="#FFE727"/>
</linearGradient>
</defs>
</svg>
